1 10 20
100 200 125
201 210 89
900 1000 174
1 1000000 525
1 500000 449
500000 1000000 525
1 1 1
1000000 1000000 153
359795 565811 470
281196 577818 470
362903 607955 470
162527 792311 509
413838 839630 525
83327 403302 443
152250 738042 509
247609 891758 525
594643 629849 509
5725 236333 443
303522 696702 509
570573 856645 525
143492 912289 525
653789 682130 442
31789 524696 470
150350 576843 470
194964 737086 509
415160 602485 470
680314 688228 398
775044 780395 437
224699 985214 525
727403 742468 424
541684 710202 509
296390 879428 525
12818 815615 509
10589 744084 509
720029 966616 525
262073 917287 525
255831 397048 441
235022 510340 449
68418 728758 509
18729 754366 509
719468 830053 468
259106 720163 509
653015 740598 504
173770 920590 525
741252 952428 525
784872 785328 300
138093 791376 509
438266 933452 525
567016 647708 509
22020 893300 525
247984 622746 470
622277 927823 525
502852 818286 509
296836 817055 509
57462 562655 470
621023 982291 525
85225 607795 470
98277 930956 525
437581 650277 509
716563 809145 468
65109 154915 375
499302 620296 470
113222 941280 525
39639 581235 470
895502 931364 476
257729 542686 470
38252 382420 443
659177 945631 525
893031 993466 507
384348 602572 470
515143 924323 525
177552 220357 386
340849 900179 525
297139 625745 470
111300 669469 509
336499 466398 449
42614 492011 449
74403 255263 443
401790 455061 449
241611 579337 470
181951 650290 509
79796 674479 509
442257 631622 509
23589 393460 443
245023 964722 525
812485 910773 525
383590 860104 525
306511 750231 509
246253 607021 470
941319 967521 414
404769 618443 470
275013 501868 449
460710 965004 525
575581 946003 525
179298 949871 525
140268 283914 443
33239 386227 443
69217 337798 443
317169 547740 470
228418 261916 443
168399 781099 509
425680 866462 525
85640 770333 509
269425 915861 525
15614 783287 509
526054 770150 509
526921 977770 525
200093 534424 470
909396 299606 525
970307 149633 525
924567 378955 525
940719 73034 525
906352 743988 525
549499 131624 470
367882 117985 443
949598 400451 525
784240 425443 509
945205 743106 525
23825 1139 282
656032 374239 509
482494 417857 444
279444 20315 443
572211 392842 470
811060 564817 509
689457 318815 509
685781 408989 509
510556 146628 449
545742 171747 470
662484 434820 509
578349 96452 470
818848 162576 509
365896 196121 443
545070 316780 470
903521 82119 525
613296 242542 470
867668 540267 525
714776 239522 509
629671 397648 509
249426 227109 443
680710 575901 509
946925 705240 525
633415 582269 509
819287 30439 509
832655 136833 509
247745 97714 443
278222 210396 443
477455 242835 449
361622 244879 441
919796 26007 525
227156 203970 386
235567 163338 443
192122 188899 360
867663 453760 525
614959 173086 470
662885 12306 509
652008 183588 509
595660 510805 470
800028 729342 468
141317 76593 354
509559 377832 449
982804 490556 525
422699 11870 449
837858 796788 525
495866 463557 426
986677 234081 525
510448 64567 449
698419 318592 509
906057 159141 525
594707 414212 470
488421 297904 449
963012 697354 525
505824 404749 449
547689 225599 470
353479 148035 443
398817 282720 441
880682 491986 525
785213 416188 509
418575 71422 449
956026 663653 525
313733 132053 443
581067 36772 470
909831 289231 525
414855 387184 449
537832 135592 470
357552 102518 443
330095 41088 443
366864 295590 441
340584 159469 443
867790 386655 525
77504 15438 351
590924 219785 470
483763 187030 449
555018 254882 470
988776 421465 525
916313 55779 525
756105 437606 509
995230 60840 525
526359 482235 470
531947 383196 470
