59081 97494 351
33058 58517 340
21240 60800 340
36388 72621 340
55017 95191 351
23125 29584 308
19152 27403 308
4246 40679 324
9294 76388 340
29297 45753 324
40955 60169 340
54456 76411 335
68793 91179 351
17606 20717 279
41661 59136 340
2447 6696 262
30396 90341 351
70209 96992 351
35403 45959 324
17635 38043 324
44896 77143 351
12818 51083 324
19552 69990 340
10498 13897 276
43292 53046 340
59860 74360 335
28631 47203 324
23247 66280 340
43802 69169 340
23417 46649 324
35339 39610 324
68953 85022 351
73853 88520 351
33905 56462 340
5542 71209 340
48714 69725 340
51107 97469 351
64503 68328 312
45378 60701 340
34017 45263 324
30045 93482 351
70201 75075 325
30048 62221 340
49841 96025 351
4546 69003 340
21721 73786 340
40273 43383 288
54227 61264 335
22092 52437 324
25211 52517 324
70011 81817 351
60445 97099 351
2030 89861 351
51571 64454 340
26768 63977 340
13672 57610 340
48217 66985 340
45914 74438 340
8651 28691 308
41411 58808 340
33994 88253 351
63599 69081 312
46979 82156 351
6148 38859 324
2183 79828 351
14755 44956 324
57844 69249 335
28732 60490 340
84348 88335 333
61745 66395 330
16989 72104 340
41169 77208 351
33274 47082 324
75058 87679 351
491 99223 351
43604 83425 351
57208 86575 351
27387 86110 351
22091 87256 351
71858 74900 325
76106 81860 351
48736 87662 351
57268 88465 351
51992 72739 340
16240 42516 324
7161 68978 340
2353 94587 351
70828 87912 351
3265 6300 262
28614 78501 351
42412 97640 351
12187 71134 340
21806 74020 340
40196 96552 351
87300 96550 333
7142 14424 276
732 76807 340
1662 91780 351
36126 50268 314
3116 26554 282
1886 63732 340
66129 66416 268
16202 40804 324
6893 36463 324
8902 89523 351
60619 67947 335
56197 86365 351
32881 77773 351
15622 78056 351
47516 76525 340
35074 95101 351
17260 93772 351
9247 90024 351
30591 52197 324
96786 98166 297
15384 25715 282
5284 92395 351
35487 64322 340
445 38265 324
2376 25425 282
6522 11451 268
42867 81484 351
24765 64910 340
44293 61533 340
21393 55706 340
46347 94570 351
9131 55908 340
15569 91016 351
5779 11393 268
19515 42001 324
46852 59529 340
46572 77729 351
37901 42237 306
55649 94412 351
2468 17221 276
67545 67572 198
41034 90200 351
7040 28120 308
14382 32446 308
4475 58839 340
27247 36638 324
927 64163 340
11450 27006 308
17271 94272 351
4379 99370 351
33366 87359 351
89339 97340 333
10670 23809 282
21262 93038 351
43459 49531 314
15012 32129 308
9844 66275 340
815 2316 183
1478 84942 351
13135 84443 351
48008 99499 351
16903 24253 282
26242 70898 340
73632 93979 351
14197 23429 279
25105 61992 340
52529 95068 351
71033 95474 351
63118 83798 351
50285 92298 351
26319 32762 308
366 64541 340
26558 85457 351
4767 8449 262
6644 96153 351
51287 94419 351
49251 67513 340
29574 42870 324
55287 69015 335
6286 46421 324
58731 89346 351
90467 96044 333
14997 88405 351
39687 52529 340
24661 77913 351
43477 53935 340
33200 89317 351
16561 48414 324
38450 92833 351
50400 62502 340
1049 26737 308
54365 90632 351
10583 71018 340
33783 93200 351
17704 27220 308
47039 50786 314
11886 86450 351
752 40404 324
12796 73555 340
9342 94591 351
39926 90761 351
15514 99350 351
69226 79642 351
5047 90036 351