1 10 20
100 200 125
201 210 89
900 1000 174
762252 994146 525
524440 912054 525
144374 145044 295
849295 948230 507
605594 607838 341
258947 822060 509
318664 701363 509
265642 988123 525
153076 165135 383
658943 688341 442
707719 810503 468
740415 857253 525
541715 884381 525
389491 756068 509
964972 985369 458
692945 897255 525
556707 622447 447
545294 981668 525
473040 540711 470
522296 669540 509
927048 965820 507
648449 740878 504
950873 965027 414
584574 892588 525
745238 927018 525
116098 868535 525
807161 920065 525
7488 795389 509
644250 926867 525
996475 997943 440
72927 560212 470
625189 965772 525
693781 951167 525
817664 920900 525
430959 559909 470
882626 971480 507
506455 795745 509
222230 706821 509
964047 967947 365
760425 777377 468
65294 968101 525
705303 998785 525
251649 346680 441
812752 963670 525
69313 579258 470
841831 842280 269
301416 597048 470
869711 894223 445
227239 678058 509
997574 998539 440
437244 976125 525
566995 807460 509
337667 886638 525
664731 805541 504
135391 889323 525
342473 344182 353
645753 864834 525
707722 911306 525
550742 941144 525
121386 415387 449
533987 619282 452
251411 908664 525
607218 769254 509
393408 438877 449
306035 813915 509
853575 899015 445
788668 849949 525
738261 994593 525
524236 842816 525
872092 938538 476
97875 769577 509
547177 955722 525
762301 963341 525
871019 887083 445
19956 170231 383
958890 964559 414
612269 831876 509
109965 485325 449
263105 322463 407
885364 917420 476
429670 599451 470
440374 868628 525
515563 890468 525
411359 411699 330
97289 302458 443
702950 722187 504
303688 500902 449
199709 366604 443
351498 729429 509
443900 458774 387
377354 421672 449
584529 706420 509
550917 937402 525
552332 564755 421
133212 583828 470
697031 911640 525
398998 957325 525
913259 948365 507
891734 940649 507
5750 656441 509
675382 693854 442
330202 519518 470
557734 832575 509
991398 993709 352
482991 771997 509
750587 815824 468
288269 955964 525
400193 484157 449
192896 205027 360
931278 946468 507
492589 717286 509
289270 807732 509
454114 804366 509
164333 979442 525
756043 824169 468
994240 996678 365
133396 141803 344
599975 912620 525
600469 916133 525
824635 941896 525
144224 267032 443
129468 805902 509
473839 837451 509
176577 492032 449
309843 553175 470
267120 362854 441
153625 358727 443
79002 196410 383
515995 581425 452
589153 686779 509
863474 974708 507
588973 885883 525
692471 720660 504
551738 823786 509
121452 933736 525
685890 900748 525
256875 416695 449
487140 884338 525
893595 982722 507
686591 721815 504
662224 797916 504
662105 840956 525
791387 967555 525
369668 463595 449
462877 463245 325
420076 832217 509
49240 843602 525
347488 761534 509
689531 789709 504
406595 788051 509
